Symbolic model formulae for linear mixed models illustrated with the analysis of agricultural data
…
::: {.grid grid: 1fr / 7fr 3fr; }

::: item 

<img src="figure/unnamed-chunk-17-1.svg" width="648" style="display: block; margin: auto;" />
:::

::: item 

```r
as_tibble(ChickWeight)
```

```
## # A tibble: 578 x 4
##    weight  Time Chick Diet 
##     <dbl> <dbl> <ord> <fct>
##  1     42     0 1     1    
##  2     51     2 1     1    
##  3     59     4 1     1    
##  4     64     6 1     1    
##  5     76     8 1     1    
##  6     93    10 1     1    
##  7    106    12 1     1    
##  8    125    14 1     1    
##  9    149    16 1     1    
## 10    171    18 1     1    
## # … with 568 more rows
```
…
